{
	 
	"Cassandra" : {
		"clusterName" : "Test Cluster",
		"host" : "127.0.0.1",
		"port" : 29160,
		"rpcPort" : 29042,
		"jmxPort" : 7199,
		"reloadColumnFamilies" : true,
		"split_size" : 5000,
		"bulkImport" : false,
		"bulkMethod" : "jmx",
		"CASSANDRA_HOME" : "/work/psk/ahypki/beans/beans-1/apache-cassandra-2.2.4//apache-cassandra-2.2.4/"
	},
	
	"StorageProvider" : {
		"class"			: "net.hypki.libs5.storage.hadoop.HdfsStorageProvider",
		"hadoopPath" 	: "/home/ahypki/projekty/tomcat_release/programy/hadoop-0.20.2/"
	},
	
	"CacheProvider" : {
		"class" 		: "net.hypki.libs5.cache.ehcache.EhcacheProvider"
	},
		
	"SearchEngineProvider" : {
		"class" 		: "net.hypki.libs5.search.elastic.ElasticSearchProvider",
		"classY" 		: "net.hypki.libs5.search.lucene.LuceneSearchEngineProvider"
	},

	"ElasticSearch" : {
		"host" : "127.0.0.1",
		"port" : 9300,
		"portX" : 28601
	},

	"Mail" : {
		"host" : "127.0.0.1",
		"port" : 25,
		"from" : "noreply@beanscode.net"
	},
	
	"Settings" : {
		"Keyspace" 				: "beansdev3",
		"OpenIDReturnURL" 		: "http://beanscode.net/openid",
		"OpenIDEnabled" 		: false,
		"RegistrationEnabled" 	: false,
		"StartBrowser" 			: false,
		"Domain"				: "beans.camk.edu.pl"
	},
	
	"Users" : {
		"Create"	: false,
		"Recreate"	: false
	},
	
	"MoccaAdminCLI" : {
		"backupPath" : "/home/ahypki/projekty/libs/backups"
	},
	
	"Jetty" : {
		"port" : 25000
	},
	
	"Hazelcast" : {
		"Serializers" : [
			{
				"type" : "net.beanscode.model.dataset.ClearTableJob",
				"impl" : "net.beanscode.model.dataset.ClearTableJobSerializer"
			}
		]
	}, 
	
	"Pig" : {
		"mode" : "hadoop"
	}
}
