%!PS-Adobe-3.0 EPSF-3.0
%%Creator: cairo 1.16.0 (https://cairographics.org)
%%CreationDate: Fri Oct  6 21:26:18 2023
%%Pages: 1
%%DocumentData: Clean7Bit
%%LanguageLevel: 2
%%BoundingBox: 1 0 998 277
%%EndComments
%%BeginProlog
50 dict begin
/q { gsave } bind def
/Q { grestore } bind def
/cm { 6 array astore concat } bind def
/w { setlinewidth } bind def
/J { setlinecap } bind def
/j { setlinejoin } bind def
/M { setmiterlimit } bind def
/d { setdash } bind def
/m { moveto } bind def
/l { lineto } bind def
/c { curveto } bind def
/h { closepath } bind def
/re { exch dup neg 3 1 roll 5 3 roll moveto 0 rlineto
      0 exch rlineto 0 rlineto closepath } bind def
/S { stroke } bind def
/f { fill } bind def
/f* { eofill } bind def
/n { newpath } bind def
/W { clip } bind def
/W* { eoclip } bind def
/BT { } bind def
/ET { } bind def
/BDC { mark 3 1 roll /BDC pdfmark } bind def
/EMC { mark /EMC pdfmark } bind def
/cairo_store_point { /cairo_point_y exch def /cairo_point_x exch def } def
/Tj { show currentpoint cairo_store_point } bind def
/TJ {
  {
    dup
    type /stringtype eq
    { show } { -0.001 mul 0 cairo_font_matrix dtransform rmoveto } ifelse
  } forall
  currentpoint cairo_store_point
} bind def
/cairo_selectfont { cairo_font_matrix aload pop pop pop 0 0 6 array astore
    cairo_font exch selectfont cairo_point_x cairo_point_y moveto } bind def
/Tf { pop /cairo_font exch def /cairo_font_matrix where
      { pop cairo_selectfont } if } bind def
/Td { matrix translate cairo_font_matrix matrix concatmatrix dup
      /cairo_font_matrix exch def dup 4 get exch 5 get cairo_store_point
      /cairo_font where { pop cairo_selectfont } if } bind def
/Tm { 2 copy 8 2 roll 6 array astore /cairo_font_matrix exch def
      cairo_store_point /cairo_font where { pop cairo_selectfont } if } bind def
/g { setgray } bind def
/rg { setrgbcolor } bind def
/d1 { setcachedevice } bind def
/cairo_data_source {
  CairoDataIndex CairoData length lt
    { CairoData CairoDataIndex get /CairoDataIndex CairoDataIndex 1 add def }
    { () } ifelse
} def
/cairo_flush_ascii85_file { cairo_ascii85_file status { cairo_ascii85_file flushfile } if } def
/cairo_image { image cairo_flush_ascii85_file } def
/cairo_imagemask { imagemask cairo_flush_ascii85_file } def
%%EndProlog
%%BeginSetup
%%EndSetup
%%Page: 1 1
%%BeginPageSetup
%%PageBoundingBox: 1 0 998 277
%%EndPageSetup
q 1 0 997 277 rectclip
1 0 0 -1 0 277 cm q
0.294118 0.568627 0.945098 rg
622.195 37.824 m 625.691 37.824 628.527 42.281 628.527 47.781 c 628.527
 229.52 l 628.527 235.02 625.691 239.48 622.195 239.48 c 618.695 239.48 
615.859 235.02 615.859 229.52 c 615.859 47.781 l 615.859 42.281 618.695 
37.824 622.195 37.824 c h
622.195 37.824 m f
Q q
1.398 38.324 581.309 140.441 re W n
0.294118 0.568627 0.945098 rg
78.797 106.031 m 88.598 112.352 93.5 121.121 93.5 132.34 c 93.5 135.047
 93.371 137.113 93.113 138.531 c 92.078 146.398 88.957 153.617 83.75 160.195
 c 78.512 166.773 71.703 171.418 63.32 174.125 c 57.773 175.801 50.359 176.641
 41.074 176.641 c 28.047 176.641 18.699 176.316 13.023 175.672 c 1.418 174.316
 l 19.215 39.871 l 61.191 39.871 l 67.383 39.871 72.414 40.84 76.281 42.773
 c 82.473 45.223 87.309 48.965 90.789 53.992 c 94.273 59.023 96.012 64.891
 96.012 71.598 c 96.012 85.785 89.953 95.973 77.828 102.164 c 77.699 102.164
 76.09 102.613 72.992 103.516 c 73.637 103.387 74.605 103.605 75.895 104.176
 c 77.184 104.766 78.152 105.387 78.797 106.031 c h
62.352 54.961 m 32.562 54.961 l 26.953 97.133 l 53.453 97.133 l 60.676 
97.133 66.777 95.16 71.754 91.215 c 76.707 87.293 79.633 81.723 80.539 74.5
 c 80.668 73.598 80.73 72.371 80.73 70.824 c 80.73 66.051 79.184 62.312 
76.09 59.605 c 72.992 56.895 68.414 55.348 62.352 54.961 c h
43.395 161.938 m 53.324 161.938 61.359 159.77 67.5 155.438 c 73.613 151.129
 77.184 144.977 78.215 136.984 c 78.344 136.078 78.41 134.727 78.41 132.922
 c 78.41 126.602 76.281 121.531 72.027 117.715 c 67.77 113.922 61.578 112.027
 53.453 112.027 c 25.02 112.027 l 18.633 160.969 l 31.594 161.551 l h
116.906 174.898 m 134.316 42 l 218.465 42 l 216.531 56.703 l 147.469 56.703
 l 142.055 97.133 l 192.93 97.133 l 190.996 111.836 l 140.117 111.836 l 
133.734 160.195 l 206.473 160.195 l 204.535 174.898 l h
218.039 174.898 m 291.008 38.324 l 297.199 38.324 l 334.531 174.898 l 318.477
 174.898 l 306.484 132.148 l 257.543 132.148 l 234.715 174.898 l h
302.422 117.832 m 291.977 76.047 l 291.691 75.145 291.434 73.66 291.199
 71.598 c 290.941 69.535 290.738 67.988 290.582 66.953 c 286.559 76.82 l
 265.277 117.832 l h
358.676 174.898 m 376.277 40.066 l 382.855 40.066 l 449.594 143.754 l 451.723
 148.59 l 452.305 143.172 l 465.457 41.809 l 480.738 41.809 l 463.137 174.898
 l 455.398 174.898 l 446.113 163.871 l 392.527 84.559 l 386.34 74.5 l 385.562
 87.266 l 373.957 174.898 l h
534.52 178.766 m 527.039 178.766 520.113 177.246 513.742 174.203 c 507.344
 171.184 502.188 166.992 498.266 161.629 c 494.32 156.289 492.09 150.266
 491.574 143.559 c 506.082 138.336 l 506.984 146.332 510.273 152.613 515.949
 157.18 c 521.621 161.77 528.004 164.066 535.098 164.066 c 540.258 164.066
 545.156 162.906 549.801 160.582 c 554.441 158.262 558.352 155 561.523 150.793
 c 564.672 146.617 566.566 141.82 567.211 136.402 c 567.34 135.629 567.402
 134.469 567.402 132.922 c 567.402 128.664 566.09 124.949 563.457 121.777
 c 560.801 118.633 556.25 115.316 549.801 111.836 c 541.031 107.191 534.324
 103.414 529.684 100.5 c 525.039 97.609 521.172 94.062 518.074 89.859 c 
514.98 85.68 513.434 80.691 513.434 74.887 c 513.434 67.922 515.34 61.668
 519.16 56.121 c 522.949 50.578 527.941 46.258 534.133 43.16 c 540.32 40.066
 546.77 38.52 553.477 38.52 c 558.633 38.52 563.379 39.551 567.715 41.613
 c 572.02 43.676 575.398 46.422 577.852 49.855 c 580.301 53.258 581.527 
56.961 581.527 60.957 c 581.527 63.023 581.27 64.891 580.754 66.566 c 566.242
 64.828 l 566.5 63.797 566.629 63.023 566.629 62.504 c 566.629 59.926 565.121
 57.734 562.105 55.93 c 559.059 54.121 555.863 53.219 552.508 53.219 c 548.512
 53.219 544.707 54.148 541.094 56.004 c 537.484 57.891 534.543 60.379 532.273
 63.473 c 530.031 66.566 528.91 69.855 528.91 73.34 c 528.91 78.109 530.996
 82.262 535.176 85.797 c 539.379 89.355 545.094 93.07 552.316 96.938 c 558.895
 100.809 l 567.145 105.707 573.184 110.57 577 115.395 c 580.789 120.242 
582.688 125.957 582.688 132.535 c 582.688 141.305 580.391 149.234 575.801
 156.328 c 571.234 163.422 565.25 168.926 557.848 172.848 c 550.418 176.793
 542.645 178.766 534.52 178.766 c h
534.52 178.766 m f
Q q
30.465 211.922 552.242 27.055 re W n
0.294118 0.568627 0.945098 rg
30.531 212.285 m 30.531 238.617 l 37.605 238.617 l 38.777 238.617 39.875
 238.469 40.902 238.18 c 41.934 237.891 42.879 237.477 43.73 236.934 c 44.469
 236.477 45.145 235.906 45.762 235.223 c 46.375 234.543 46.91 233.797 47.367
 232.992 c 47.852 232.09 48.227 231.094 48.488 230.008 c 48.754 228.922 
48.887 227.773 48.887 226.559 c 48.887 224.387 l 48.887 223.117 48.746 221.922
 48.465 220.801 c 48.18 219.684 47.777 218.656 47.258 217.73 c 46.812 216.969
 46.293 216.266 45.695 215.625 c 45.098 214.98 44.422 214.434 43.664 213.988
 c 42.797 213.445 41.832 213.027 40.77 212.73 c 39.707 212.434 38.57 212.285
 37.355 212.285 c h
35.652 234.527 m 35.652 216.41 l 37.355 216.41 l 37.965 216.41 38.535 216.48
 39.059 216.617 c 39.586 216.758 40.066 216.953 40.496 217.203 c 41.062 
217.543 41.562 217.977 41.992 218.508 c 42.414 219.039 42.762 219.641 43.027
 220.312 c 43.246 220.883 43.41 221.508 43.523 222.188 c 43.641 222.867 
43.703 223.59 43.703 224.352 c 43.703 226.559 l 43.703 227.363 43.641 228.113
 43.523 228.809 c 43.41 229.5 43.246 230.129 43.027 230.699 c 42.762 231.344
 42.445 231.914 42.078 232.402 c 41.715 232.891 41.301 233.293 40.844 233.609
 c 40.395 233.91 39.898 234.141 39.363 234.297 c 38.82 234.449 38.234 234.527
 37.605 234.527 c h
69.211 212.285 m 53.98 212.285 l 53.98 216.395 l 58.996 216.395 l 58.996
 234.527 l 53.98 234.527 l 53.98 238.617 l 69.211 238.617 l 69.211 234.527
 l 64.078 234.527 l 64.078 216.395 l 69.211 216.395 l h
88.754 231.742 m 88.754 232.211 88.66 232.645 88.465 233.039 c 88.273 233.43
 87.996 233.762 87.637 234.039 c 87.273 234.316 86.828 234.531 86.305 234.691
 c 85.781 234.848 85.18 234.926 84.504 234.926 c 83.742 234.926 83.047 234.844
 82.414 234.676 c 81.785 234.508 81.246 234.242 80.801 233.875 c 80.344 
233.516 79.984 233.051 79.734 232.484 c 79.477 231.918 79.34 231.238 79.32
 230.438 c 74.328 230.438 l 74.328 231.801 74.59 232.988 75.113 234 c 75.637
 235.02 76.352 235.898 77.254 236.645 c 78.207 237.406 79.324 237.98 80.609
 238.371 c 81.891 238.762 83.191 238.957 84.504 238.957 c 85.844 238.957
 87.078 238.797 88.215 238.48 c 89.344 238.16 90.32 237.688 91.141 237.059
 c 91.961 236.449 92.602 235.691 93.066 234.793 c 93.531 233.895 93.762 
232.867 93.762 231.703 c 93.762 230.367 93.457 229.188 92.844 228.164 c 
92.227 227.137 91.398 226.238 90.363 225.469 c 89.676 225 88.922 224.586
 88.105 224.223 c 87.285 223.859 86.422 223.551 85.52 223.297 c 84.676 223.07
 83.918 222.824 83.254 222.559 c 82.582 222.293 82.012 221.996 81.543 221.668
 c 81.074 221.359 80.715 221.004 80.469 220.602 c 80.223 220.207 80.098 
219.762 80.098 219.27 c 80.098 218.797 80.188 218.359 80.371 217.957 c 80.559
 217.555 80.832 217.199 81.195 216.898 c 81.559 216.609 82.004 216.383 82.527
 216.219 c 83.051 216.055 83.648 215.973 84.328 215.973 c 85.062 215.973
 85.703 216.074 86.254 216.277 c 86.801 216.477 87.262 216.75 87.637 217.098
 c 87.996 217.461 88.273 217.887 88.461 218.379 c 88.648 218.875 88.75 219.418
 88.77 220.012 c 93.727 220.012 l 93.727 218.828 93.5 217.742 93.043 216.75
 c 92.586 215.766 91.945 214.91 91.125 214.188 c 90.305 213.477 89.324 212.922
 88.184 212.523 c 87.043 212.121 85.789 211.922 84.414 211.922 c 83.094 
211.922 81.863 212.094 80.727 212.441 c 79.598 212.785 78.613 213.277 77.777
 213.914 c 76.949 214.551 76.297 215.324 75.824 216.234 c 75.355 217.137
 75.121 218.141 75.121 219.246 c 75.121 220.215 75.297 221.109 75.652 221.93
 c 76.008 222.75 76.539 223.492 77.238 224.164 c 77.934 224.84 78.836 225.465
 79.941 226.031 c 81.043 226.598 82.324 227.082 83.785 227.477 c 84.723 
227.727 85.508 228 86.141 228.297 c 86.773 228.594 87.289 228.918 87.688
 229.27 c 88.074 229.629 88.348 230.016 88.512 230.422 c 88.676 230.832 
88.754 231.273 88.754 231.742 c h
108.539 216.426 m 116.656 216.426 l 116.656 212.285 l 95.43 212.285 l 95.43
 216.426 l 103.434 216.426 l 103.434 238.617 l 108.539 238.617 l h
124.609 228.781 m 128.461 228.781 l 133.418 238.617 l 138.859 238.617 l
 138.859 238.379 l 133.195 227.512 l 133.922 227.188 134.574 226.801 135.156
 226.359 c 135.746 225.91 136.25 225.383 136.668 224.781 c 137.078 224.191
 137.395 223.52 137.617 222.766 c 137.844 222.016 137.957 221.168 137.957
 220.227 c 137.957 218.922 137.73 217.777 137.277 216.789 c 136.82 215.801
 136.18 214.977 135.352 214.316 c 134.504 213.648 133.492 213.145 132.312
 212.805 c 131.133 212.457 129.812 212.285 128.352 212.285 c 119.531 212.285
 l 119.531 238.617 l 124.609 238.617 l h
128.375 224.652 m 124.609 224.652 l 124.609 216.41 l 128.352 216.41 l 129.051
 216.41 129.676 216.496 130.219 216.664 c 130.762 216.832 131.219 217.07
 131.586 217.387 c 132.012 217.738 132.328 218.18 132.535 218.715 c 132.746
 219.254 132.855 219.871 132.855 220.566 c 132.855 221.148 132.773 221.676
 132.609 222.145 c 132.445 222.613 132.211 223.016 131.898 223.352 c 131.523
 223.773 131.035 224.098 130.441 224.32 c 129.844 224.543 129.152 224.652
 128.375 224.652 c h
158.094 212.285 m 142.867 212.285 l 142.867 216.395 l 147.883 216.395 l
 147.883 234.527 l 142.867 234.527 l 142.867 238.617 l 158.094 238.617 l
 158.094 234.527 l 152.961 234.527 l 152.961 216.395 l 158.094 216.395 l
 h
163.934 212.285 m 163.934 238.617 l 173.539 238.617 l 174.984 238.617 176.285
 238.453 177.441 238.125 c 178.598 237.801 179.578 237.312 180.391 236.66
 c 181.199 236.008 181.82 235.199 182.254 234.238 c 182.684 233.273 182.898
 232.16 182.898 230.898 c 182.898 230.23 182.812 229.59 182.641 228.973 
c 182.469 228.352 182.199 227.773 181.832 227.238 c 181.488 226.746 181.059
 226.312 180.543 225.941 c 180.031 225.566 179.34 225.258 178.469 225.016
 c 178.469 225.004 l 178.922 224.828 179.328 224.625 179.691 224.387 c 180.062
 224.145 180.391 223.879 180.68 223.586 c 181.211 223.059 181.609 222.441
 181.879 221.734 c 182.148 221.031 182.293 220.277 182.309 219.484 c 182.309
 218.254 182.082 217.188 181.625 216.285 c 181.176 215.383 180.535 214.633
 179.699 214.039 c 178.871 213.449 177.867 213.008 176.691 212.723 c 175.52
 212.43 174.211 212.285 172.773 212.285 c h
169.035 234.512 m 169.035 227.008 l 173.766 227.008 l 174.484 227.02 175.102
 227.117 175.621 227.297 c 176.137 227.477 176.559 227.734 176.879 228.074
 c 177.203 228.402 177.445 228.801 177.598 229.27 c 177.746 229.738 177.82
 230.27 177.82 230.859 c 177.82 231.422 177.719 231.934 177.523 232.395 
c 177.324 232.852 177.035 233.246 176.648 233.57 c 176.297 233.859 175.859
 234.086 175.336 234.262 c 174.809 234.43 174.215 234.512 173.555 234.512
 c h
172.812 223.336 m 169.035 223.336 l 169.035 216.426 l 172.797 216.426 l
 173.617 216.441 174.332 216.531 174.938 216.699 c 175.547 216.867 176.031
 217.141 176.398 217.516 c 176.672 217.781 176.879 218.113 177.02 218.508
 c 177.156 218.906 177.227 219.371 177.227 219.898 c 177.227 220.406 177.145
 220.859 176.98 221.254 c 176.82 221.656 176.586 221.992 176.285 222.27 
c 175.926 222.621 175.449 222.883 174.855 223.055 c 174.266 223.23 173.582
 223.324 172.812 223.336 c h
203.75 229.734 m 203.734 212.285 l 198.691 212.285 l 198.668 229.734 l 
198.66 230.594 198.566 231.348 198.395 231.992 c 198.227 232.645 197.973
 233.188 197.641 233.625 c 197.324 234.047 196.926 234.363 196.453 234.57
 c 195.98 234.785 195.434 234.891 194.816 234.891 c 194.25 234.891 193.746
 234.793 193.312 234.594 c 192.883 234.395 192.516 234.098 192.211 233.699
 c 191.891 233.262 191.648 232.715 191.484 232.055 c 191.32 231.387 191.23
 230.613 191.219 229.734 c 191.203 212.285 l 186.121 212.285 l 186.098 229.734
 l 186.098 231.207 186.309 232.516 186.73 233.668 c 187.145 234.816 187.73
 235.785 188.492 236.57 c 189.246 237.355 190.156 237.953 191.227 238.363
 c 192.293 238.773 193.488 238.977 194.816 238.977 c 196.23 238.977 197.484
 238.773 198.586 238.363 c 199.688 237.953 200.625 237.352 201.402 236.555
 c 202.16 235.77 202.742 234.805 203.141 233.66 c 203.547 232.516 203.75
 231.207 203.75 229.734 c h
219.645 216.426 m 227.762 216.426 l 227.762 212.285 l 206.535 212.285 l
 206.535 216.426 l 214.539 216.426 l 214.539 238.617 l 219.645 238.617 l
 h
236.027 227.074 m 246.832 227.074 l 246.832 223.062 l 236.027 223.062 l
 236.027 216.426 l 248.609 216.426 l 248.609 212.285 l 230.922 212.285 l
 230.922 238.617 l 248.664 238.617 l 248.664 234.512 l 236.027 234.512 l
 h
252.75 212.285 m 252.75 238.617 l 259.816 238.617 l 260.988 238.617 262.086
 238.469 263.121 238.18 c 264.148 237.891 265.09 237.477 265.949 236.934
 c 266.684 236.477 267.359 235.906 267.973 235.223 c 268.59 234.543 269.125
 233.797 269.586 232.992 c 270.066 232.09 270.438 231.094 270.703 230.008
 c 270.969 228.922 271.105 227.773 271.105 226.559 c 271.105 224.387 l 271.105
 223.117 270.961 221.922 270.676 220.801 c 270.395 219.684 269.992 218.656
 269.473 217.73 c 269.031 216.969 268.508 216.266 267.91 215.625 c 267.312
 214.98 266.637 214.434 265.875 213.988 c 265.008 213.445 264.039 213.027
 262.98 212.73 c 261.922 212.434 260.785 212.285 259.566 212.285 c h
257.859 234.527 m 257.859 216.41 l 259.566 216.41 l 260.176 216.41 260.746
 216.48 261.277 216.617 c 261.801 216.758 262.277 216.953 262.711 217.203
 c 263.281 217.543 263.777 217.977 264.199 218.508 c 264.629 219.039 264.98
 219.641 265.246 220.312 c 265.461 220.883 265.629 221.508 265.742 222.188
 c 265.855 222.867 265.91 223.59 265.91 224.352 c 265.91 226.559 l 265.91
 227.363 265.855 228.113 265.742 228.809 c 265.629 229.5 265.461 230.129
 265.246 230.699 c 264.98 231.344 264.66 231.914 264.289 232.402 c 263.926
 232.891 263.512 233.293 263.055 233.609 c 262.609 233.91 262.113 234.141
 261.57 234.297 c 261.027 234.449 260.445 234.527 259.816 234.527 c h
297.191 212.285 m 297.191 238.617 l 304.262 238.617 l 305.43 238.617 306.527
 238.469 307.559 238.18 c 308.59 237.891 309.535 237.477 310.387 236.934
 c 311.125 236.477 311.801 235.906 312.418 235.223 c 313.031 234.543 313.566
 233.797 314.023 232.992 c 314.508 232.09 314.883 231.094 315.145 230.008
 c 315.41 228.922 315.543 227.773 315.543 226.559 c 315.543 224.387 l 315.543
 223.117 315.402 221.922 315.121 220.801 c 314.836 219.684 314.434 218.656
 313.914 217.73 c 313.469 216.969 312.949 216.266 312.352 215.625 c 311.754
 214.98 311.074 214.434 310.312 213.988 c 309.449 213.445 308.488 213.027
 307.426 212.73 c 306.363 212.434 305.223 212.285 304.004 212.285 c h
302.309 234.527 m 302.309 216.41 l 304.004 216.41 l 304.621 216.41 305.191
 216.48 305.715 216.617 c 306.238 216.758 306.719 216.953 307.152 217.203
 c 307.719 217.543 308.219 217.977 308.648 218.508 c 309.07 219.039 309.418
 219.641 309.684 220.312 c 309.902 220.883 310.066 221.508 310.18 222.188
 c 310.293 222.867 310.352 223.59 310.352 224.352 c 310.352 226.559 l 310.352
 227.363 310.293 228.113 310.18 228.809 c 310.066 229.5 309.902 230.129 
309.684 230.699 c 309.418 231.344 309.102 231.914 308.738 232.402 c 308.367
 232.891 307.953 233.293 307.5 233.609 c 307.051 233.91 306.555 234.141 
306.012 234.297 c 305.473 234.449 304.891 234.527 304.262 234.527 c h
324.562 233.121 m 332.469 233.121 l 334 238.617 l 339.355 238.617 l 330.898
 212.285 l 326.281 212.285 l 317.652 238.617 l 323.008 238.617 l h
331.273 228.793 m 325.816 228.793 l 328.578 219.105 l h
352.969 216.426 m 361.086 216.426 l 361.086 212.285 l 339.859 212.285 l
 339.859 216.426 l 347.871 216.426 l 347.871 238.617 l 352.969 238.617 l
 h
369.012 233.121 m 376.906 233.121 l 378.445 238.617 l 383.801 238.617 l
 375.336 212.285 l 370.723 212.285 l 362.102 238.617 l 367.457 238.617 l
 h
375.715 228.793 m 370.254 228.793 l 373.023 219.105 l h
413.449 233.121 m 421.352 233.121 l 422.887 238.617 l 428.242 238.617 l
 419.781 212.285 l 415.168 212.285 l 406.539 238.617 l 411.895 238.617 l
 h
420.16 228.793 m 414.695 228.793 l 417.465 219.105 l h
442.922 238.617 m 447.984 238.617 l 447.984 212.285 l 442.883 212.285 l
 442.867 229.195 l 435.594 212.285 l 430.484 212.285 l 430.484 238.617 l
 435.594 238.617 l 435.594 221.641 l h
457.895 233.121 m 465.793 233.121 l 467.332 238.617 l 472.688 238.617 l
 464.223 212.285 l 459.605 212.285 l 450.984 238.617 l 456.34 238.617 l 
h
464.598 228.793 m 459.141 228.793 l 461.902 219.105 l h
492.84 234.512 m 480.508 234.512 l 480.508 212.285 l 475.414 212.285 l 
475.414 238.617 l 492.84 238.617 l h
511.469 212.285 m 506.277 224.418 l 501.09 212.285 l 495.52 212.285 l 503.676
 229.281 l 503.691 238.617 l 508.758 238.617 l 508.77 229.504 l 517.051 
212.285 l h
533.184 231.742 m 533.184 232.211 533.086 232.645 532.895 233.039 c 532.703
 233.43 532.422 233.762 532.059 234.039 c 531.695 234.316 531.254 234.531
 530.73 234.691 c 530.207 234.848 529.609 234.926 528.934 234.926 c 528.172
 234.926 527.477 234.844 526.844 234.676 c 526.211 234.508 525.672 234.242
 525.23 233.875 c 524.77 233.516 524.414 233.051 524.164 232.484 c 523.906
 231.918 523.766 231.238 523.738 230.438 c 518.754 230.438 l 518.754 231.801
 519.016 232.988 519.539 234 c 520.062 235.02 520.777 235.898 521.68 236.645
 c 522.633 237.406 523.754 237.98 525.035 238.371 c 526.32 238.762 527.617
 238.957 528.934 238.957 c 530.27 238.957 531.508 238.797 532.641 238.48
 c 533.773 238.16 534.75 237.688 535.566 237.059 c 536.387 236.449 537.031
 235.691 537.492 234.793 c 537.957 233.895 538.191 232.867 538.191 231.703
 c 538.191 230.367 537.883 229.188 537.273 228.164 c 536.656 227.137 535.828
 226.238 534.789 225.469 c 534.105 225 533.352 224.586 532.531 224.223 c
 531.711 223.859 530.852 223.551 529.945 223.297 c 529.102 223.07 528.344
 222.824 527.672 222.559 c 527.008 222.293 526.438 221.996 525.969 221.668
 c 525.496 221.359 525.137 221.004 524.887 220.602 c 524.641 220.207 524.52
 219.762 524.52 219.27 c 524.52 218.797 524.613 218.359 524.801 217.957 
c 524.988 217.555 525.262 217.199 525.621 216.898 c 525.988 216.609 526.43
 216.383 526.953 216.219 c 527.477 216.055 528.078 215.973 528.754 215.973
 c 529.488 215.973 530.133 216.074 530.68 216.277 c 531.227 216.477 531.688
 216.75 532.059 217.098 c 532.422 217.461 532.695 217.887 532.879 218.379
 c 533.066 218.875 533.172 219.418 533.199 220.012 c 538.152 220.012 l 538.152
 218.828 537.922 217.742 537.465 216.75 c 537.012 215.766 536.371 214.91
 535.555 214.188 c 534.734 213.477 533.754 212.922 532.613 212.523 c 531.473
 212.121 530.215 211.922 528.844 211.922 c 527.516 211.922 526.285 212.094
 525.156 212.441 c 524.02 212.785 523.035 213.277 522.207 213.914 c 521.371
 214.551 520.719 215.324 520.25 216.234 c 519.781 217.137 519.547 218.141
 519.547 219.246 c 519.547 220.215 519.727 221.109 520.082 221.93 c 520.438
 222.75 520.965 223.492 521.668 224.164 c 522.363 224.84 523.262 225.465
 524.371 226.031 c 525.469 226.598 526.75 227.082 528.207 227.477 c 529.148
 227.727 529.938 228 530.57 228.297 c 531.199 228.594 531.715 228.918 532.117
 229.27 c 532.5 229.629 532.777 230.016 532.938 230.422 c 533.102 230.832
 533.184 231.273 533.184 231.742 c h
558.078 212.285 m 542.855 212.285 l 542.855 216.395 l 547.863 216.395 l
 547.863 234.527 l 542.855 234.527 l 542.855 238.617 l 558.078 238.617 l
 558.078 234.527 l 552.945 234.527 l 552.945 216.395 l 558.078 216.395 l
 h
577.621 231.742 m 577.621 232.211 577.527 232.645 577.332 233.039 c 577.141
 233.43 576.863 233.762 576.504 234.039 c 576.145 234.316 575.699 234.531
 575.172 234.691 c 574.648 234.848 574.051 234.926 573.379 234.926 c 572.617
 234.926 571.922 234.844 571.289 234.676 c 570.652 234.508 570.113 234.242
 569.668 233.875 c 569.207 233.516 568.852 233.051 568.602 232.484 c 568.348
 231.918 568.211 231.238 568.188 230.438 c 563.195 230.438 l 563.195 231.801
 563.457 232.988 563.98 234 c 564.504 235.02 565.219 235.898 566.129 236.645
 c 567.074 237.406 568.191 237.98 569.477 238.371 c 570.758 238.762 572.059
 238.957 573.379 238.957 c 574.715 238.957 575.949 238.797 577.082 238.48
 c 578.211 238.16 579.191 237.688 580.016 237.059 c 580.836 236.449 581.477
 235.691 581.941 234.793 c 582.406 233.895 582.637 232.867 582.637 231.703
 c 582.637 230.367 582.328 229.188 581.711 228.164 c 581.094 227.137 580.27
 226.238 579.238 225.469 c 578.547 225 577.789 224.586 576.969 224.223 c
 576.152 223.859 575.289 223.551 574.387 223.297 c 573.543 223.07 572.785
 222.824 572.121 222.559 c 571.449 222.293 570.879 221.996 570.41 221.668
 c 569.938 221.359 569.582 221.004 569.336 220.602 c 569.086 220.207 568.965
 219.762 568.965 219.27 c 568.965 218.797 569.059 218.359 569.246 217.957
 c 569.43 217.555 569.703 217.199 570.066 216.898 c 570.43 216.609 570.871
 216.383 571.395 216.219 c 571.918 216.055 572.516 215.973 573.191 215.973
 c 573.93 215.973 574.57 216.074 575.117 216.277 c 575.668 216.477 576.129
 216.75 576.504 217.098 c 576.863 217.461 577.137 217.887 577.324 218.379
 c 577.512 218.875 577.621 219.418 577.645 220.012 c 582.598 220.012 l 582.598
 218.828 582.371 217.742 581.91 216.75 c 581.453 215.766 580.812 214.91 
579.992 214.188 c 579.172 213.477 578.191 212.922 577.051 212.523 c 575.918
 212.121 574.66 211.922 573.281 211.922 c 571.957 211.922 570.73 212.094
 569.594 212.441 c 568.465 212.785 567.48 213.277 566.645 213.914 c 565.816
 214.551 565.168 215.324 564.699 216.234 c 564.223 217.137 563.988 218.141
 563.988 219.246 c 563.988 220.215 564.164 221.109 564.52 221.93 c 564.875
 222.75 565.402 223.492 566.105 224.164 c 566.805 224.84 567.707 225.465
 568.809 226.031 c 569.91 226.598 571.191 227.082 572.652 227.477 c 573.59
 227.727 574.375 228 575.008 228.297 c 575.645 228.594 576.16 228.918 576.555
 229.27 c 576.941 229.629 577.215 230.016 577.379 230.422 c 577.539 230.832
 577.621 231.273 577.621 231.742 c h
577.621 231.742 m f
Q q
0.294118 0.568627 0.945098 rg
953.832 133.395 m 959.027 133.395 963.25 129.168 963.25 123.98 c 963.25
 118.793 959.023 114.566 953.832 114.566 c 948.637 114.566 944.418 118.793
 944.418 123.98 c 944.418 129.168 948.641 133.395 953.832 133.395 c h
953.832 117.703 m 957.297 117.703 960.113 120.52 960.113 123.98 c 960.113
 127.445 957.297 130.258 953.832 130.258 c 950.371 130.258 947.551 127.445
 947.551 123.98 c 947.555 120.52 950.375 117.703 953.832 117.703 c h
953.832 117.703 m f
Q q
661.68 0.152 335.707 276.848 re W n
0.294118 0.568627 0.945098 rg
988.426 213.754 m 983.398 204.188 l 983.398 16.746 l 983.398 7.508 975.887
 0 966.652 0 c 678.426 0 l 669.195 0 661.68 7.512 661.68 16.746 c 661.68
 231.215 l 661.68 240.449 669.195 247.953 678.426 247.953 c 872.484 247.953
 l 873.121 254.152 875.758 263.336 882.898 266.207 c 933.883 277.305 l 996.863
 244.203 l 997.125 243.441 l 998.609 239.195 993.582 223.574 988.426 213.754
 c h
677.375 16.746 m 677.375 16.168 677.844 15.691 678.426 15.691 c 966.652
 15.691 l 967.23 15.691 967.707 16.164 967.707 16.746 c 967.707 174.328 
l 951.305 143.113 l 949.504 139.672 945.961 137.535 942.062 137.535 c 940.383
 137.535 938.707 137.953 937.211 138.742 c 932.848 141.027 930.781 146.004
 931.973 150.586 c 931.703 150.672 l 946.977 179.758 l 947.203 180.176 947.246
 180.652 947.105 181.109 c 946.965 181.562 946.652 181.938 946.242 182.152
 c 945.395 182.602 944.289 182.254 943.836 181.41 c 928.516 152.242 l 926.699
 148.809 923.152 146.672 919.266 146.672 c 917.594 146.672 915.918 147.09
 914.434 147.863 c 911.969 149.156 910.156 151.332 909.328 153.996 c 908.492
 156.664 908.758 159.492 909.922 161.617 c 925.285 191.152 l 925.742 192.023
 925.402 193.102 924.543 193.562 c 923.699 194.004 922.594 193.648 922.148
 192.816 c 906.352 162.77 l 904.551 159.328 901.004 157.195 897.109 157.195
 c 895.434 157.195 893.762 157.605 892.27 158.387 c 889.809 159.68 887.992
 161.859 887.16 164.527 c 886.41 166.953 886.559 169.516 887.707 172.016
 c 904.957 204.973 l 905.414 205.844 905.074 206.922 904.207 207.383 c 903.348
 207.832 902.258 207.473 901.805 206.637 c 864.688 136 l 863.172 133.109
 860.414 131.148 857.258 130.602 c 901.25 99.59 l 902.008 99.965 902.852
 100.191 903.75 100.191 c 906.297 100.191 908.426 98.52 909.168 96.219 c
 937.449 91.324 l 937.449 128.258 l 940.59 128.258 l 940.59 27.73 l 693.066
 27.73 l 693.066 220.234 l 862.645 220.234 l 862.645 217.094 l 696.203 217.094
 l 696.203 155.359 l 729.926 142.109 l 730.801 142.648 731.816 142.969 732.914
 142.969 c 736.074 142.969 738.633 140.414 738.633 137.25 c 738.633 137.238
 738.629 137.227 738.629 137.211 c 768.613 116.453 l 769.289 116.742 770.035
 116.898 770.82 116.898 c 772.328 116.898 773.688 116.305 774.707 115.352
 c 812.77 138.715 l 813.121 141.543 815.504 143.734 818.422 143.734 c 821.152
 143.734 823.441 141.805 824 139.23 c 846.719 135.156 l 846.734 135.172 
846.746 135.191 846.758 135.203 c 844.785 138.262 844.414 142.258 846.223
 145.707 c 891.719 232.266 l 887.691 232.266 l 868.48 195.703 l 871.312 
232.266 l 678.426 232.266 l 677.848 232.266 677.375 231.797 677.375 231.219
 c h
822.734 134.301 m 821.688 133.082 820.152 132.297 818.422 132.297 c 816.984
 132.297 815.691 132.84 814.691 133.711 c 776.438 110.227 l 775.984 107.523
 773.648 105.465 770.816 105.465 c 767.656 105.465 765.098 108.023 765.098
 111.184 c 765.098 111.598 765.148 112 765.234 112.391 c 736.176 132.562
 l 735.25 131.914 734.129 131.535 732.91 131.535 c 729.75 131.535 727.191
 134.094 727.191 137.25 c 727.191 137.352 727.219 137.457 727.223 137.562
 c 696.199 149.68 l 696.199 30.867 l 937.449 30.867 l 937.449 85.965 l 908.273
 91.004 l 907.23 89.641 905.605 88.75 903.75 88.75 c 900.594 88.75 898.031
 91.305 898.031 94.465 c 898.031 94.684 898.074 94.883 898.094 95.09 c 853.578
 126.41 l 852.832 126.051 852.012 125.844 851.141 125.844 c 848.602 125.844
 846.477 127.504 845.73 129.797 c h
822.734 134.301 m f
Q Q
showpage
%%Trailer
end
%%EOF
