%!PS-Adobe-3.0 EPSF-3.0
%%Creator: cairo 1.16.0 (https://cairographics.org)
%%CreationDate: Fri Oct  6 21:26:18 2023
%%Pages: 1
%%DocumentData: Clean7Bit
%%LanguageLevel: 2
%%BoundingBox: 0 0 1000 1000
%%EndComments
%%BeginProlog
50 dict begin
/q { gsave } bind def
/Q { grestore } bind def
/cm { 6 array astore concat } bind def
/w { setlinewidth } bind def
/J { setlinecap } bind def
/j { setlinejoin } bind def
/M { setmiterlimit } bind def
/d { setdash } bind def
/m { moveto } bind def
/l { lineto } bind def
/c { curveto } bind def
/h { closepath } bind def
/re { exch dup neg 3 1 roll 5 3 roll moveto 0 rlineto
      0 exch rlineto 0 rlineto closepath } bind def
/S { stroke } bind def
/f { fill } bind def
/f* { eofill } bind def
/n { newpath } bind def
/W { clip } bind def
/W* { eoclip } bind def
/BT { } bind def
/ET { } bind def
/BDC { mark 3 1 roll /BDC pdfmark } bind def
/EMC { mark /EMC pdfmark } bind def
/cairo_store_point { /cairo_point_y exch def /cairo_point_x exch def } def
/Tj { show currentpoint cairo_store_point } bind def
/TJ {
  {
    dup
    type /stringtype eq
    { show } { -0.001 mul 0 cairo_font_matrix dtransform rmoveto } ifelse
  } forall
  currentpoint cairo_store_point
} bind def
/cairo_selectfont { cairo_font_matrix aload pop pop pop 0 0 6 array astore
    cairo_font exch selectfont cairo_point_x cairo_point_y moveto } bind def
/Tf { pop /cairo_font exch def /cairo_font_matrix where
      { pop cairo_selectfont } if } bind def
/Td { matrix translate cairo_font_matrix matrix concatmatrix dup
      /cairo_font_matrix exch def dup 4 get exch 5 get cairo_store_point
      /cairo_font where { pop cairo_selectfont } if } bind def
/Tm { 2 copy 8 2 roll 6 array astore /cairo_font_matrix exch def
      cairo_store_point /cairo_font where { pop cairo_selectfont } if } bind def
/g { setgray } bind def
/rg { setrgbcolor } bind def
/d1 { setcachedevice } bind def
/cairo_data_source {
  CairoDataIndex CairoData length lt
    { CairoData CairoDataIndex get /CairoDataIndex CairoDataIndex 1 add def }
    { () } ifelse
} def
/cairo_flush_ascii85_file { cairo_ascii85_file status { cairo_ascii85_file flushfile } if } def
/cairo_image { image cairo_flush_ascii85_file } def
/cairo_imagemask { imagemask cairo_flush_ascii85_file } def
%%EndProlog
%%BeginSetup
%%EndSetup
%%Page: 1 1
%%BeginPageSetup
%%PageBoundingBox: 0 0 1000 1000
%%EndPageSetup
q 0 0 1000 1000 rectclip
1 0 0 -1 0 1000 cm q
1 g
0 0 1000 1000 rectfill
0 g
585.535 429.527 m 587.984 429.527 589.969 432.648 589.969 436.5 c 589.969
 563.715 l 589.969 567.562 587.984 570.688 585.535 570.688 c 583.086 570.688
 581.102 567.562 581.102 563.715 c 581.102 436.5 l 581.102 432.648 583.086
 429.527 585.535 429.527 c h
585.535 429.527 m f
Q q
150.98 429.879 406.914 98.309 re W n
0 g
205.156 477.273 m 212.02 481.695 215.449 487.836 215.449 495.688 c 215.449
 497.582 215.359 499.027 215.18 500.02 c 214.457 505.527 212.27 510.582 
208.625 515.188 c 204.957 519.793 200.191 523.043 194.324 524.938 c 190.441
 526.109 185.25 526.699 178.75 526.699 c 169.633 526.699 163.09 526.473 
159.117 526.02 c 150.992 525.074 l 163.449 430.961 l 192.836 430.961 l 197.168
 430.961 200.688 431.637 203.398 432.992 c 207.73 434.707 211.117 437.324
 213.555 440.848 c 215.992 444.367 217.211 448.473 217.211 453.168 c 217.211
 463.098 212.965 470.23 204.48 474.562 c 204.391 474.562 203.262 474.879
 201.094 475.512 c 201.547 475.422 202.223 475.574 203.125 475.973 c 204.027
 476.387 204.707 476.82 205.156 477.273 c h
193.648 441.523 m 172.793 441.523 l 168.867 471.043 l 187.418 471.043 l
 192.473 471.043 196.742 469.66 200.227 466.898 c 203.695 464.156 205.746
 460.254 206.375 455.199 c 206.465 454.566 206.512 453.711 206.512 452.625
 c 206.512 449.285 205.43 446.668 203.262 444.773 c 201.094 442.879 197.891
 441.793 193.648 441.523 c h
180.375 516.406 m 187.328 516.406 192.953 514.891 197.25 511.855 c 201.527
 508.84 204.027 504.535 204.75 498.938 c 204.84 498.305 204.887 497.359 
204.887 496.094 c 204.887 491.672 203.398 488.121 200.418 485.449 c 197.438
 482.797 193.105 481.469 187.418 481.469 c 167.512 481.469 l 163.043 515.73
 l 172.117 516.137 l h
231.832 525.48 m 244.02 432.449 l 302.926 432.449 l 301.57 442.742 l 253.23
 442.742 l 249.438 471.043 l 285.051 471.043 l 283.695 481.336 l 248.082
 481.336 l 243.613 515.188 l 294.531 515.188 l 293.176 525.48 l h
302.629 525.48 m 353.707 429.879 l 358.039 429.879 l 384.172 525.48 l 372.934
 525.48 l 364.539 495.551 l 330.277 495.551 l 314.301 525.48 l h
361.695 485.531 m 354.383 456.281 l 354.184 455.652 354.004 454.613 353.84
 453.168 c 353.66 451.723 353.516 450.641 353.406 449.918 c 350.59 456.824
 l 335.695 485.531 l h
401.074 525.48 m 413.395 431.098 l 418 431.098 l 464.715 503.676 l 466.207
 507.062 l 466.613 503.27 l 475.82 432.316 l 486.52 432.316 l 474.195 525.48
 l 468.777 525.48 l 462.277 517.762 l 424.77 462.242 l 420.438 455.199 l
 419.895 464.137 l 411.77 525.48 l h
524.164 528.188 m 518.926 528.188 514.078 527.121 509.621 524.992 c 505.141
 522.879 501.531 519.945 498.785 516.188 c 496.023 512.453 494.461 508.234
 494.102 503.543 c 504.258 499.887 l 504.891 505.484 507.191 509.879 511.164
 513.074 c 515.137 516.289 519.605 517.895 524.57 517.895 c 528.18 517.895
 531.609 517.082 534.859 515.457 c 538.109 513.832 540.844 511.551 543.066
 508.605 c 545.27 505.68 546.598 502.324 547.047 498.531 c 547.137 497.988
 547.184 497.176 547.184 496.094 c 547.184 493.113 546.262 490.516 544.422
 488.293 c 542.562 486.09 539.375 483.773 534.859 481.336 c 528.723 478.086
 524.027 475.438 520.777 473.398 c 517.527 471.375 514.82 468.895 512.652
 465.953 c 510.484 463.027 509.402 459.531 509.402 455.469 c 509.402 450.594
 510.738 446.219 513.41 442.336 c 516.066 438.453 519.559 435.43 523.891
 433.262 c 528.227 431.098 532.738 430.012 537.434 430.012 c 541.043 430.012
 544.367 430.734 547.398 432.18 c 550.414 433.625 552.781 435.547 554.496
 437.949 c 556.211 440.332 557.066 442.922 557.066 445.719 c 557.066 447.164
 556.887 448.473 556.527 449.648 c 546.371 448.43 l 546.551 447.707 546.641
 447.164 546.641 446.805 c 546.641 445 545.586 443.465 543.473 442.199 c
 541.344 440.938 539.102 440.305 536.758 440.305 c 533.957 440.305 531.293
 440.953 528.766 442.254 c 526.238 443.57 524.18 445.312 522.594 447.48 
c 521.02 449.648 520.234 451.949 520.234 454.387 c 520.234 457.727 521.699
 460.633 524.625 463.109 c 527.566 465.598 531.566 468.199 536.621 470.906
 c 541.227 473.617 l 547.004 477.047 551.227 480.449 553.898 483.824 c 556.555
 487.219 557.879 491.219 557.879 495.824 c 557.879 501.961 556.273 507.516
 553.059 512.48 c 549.863 517.445 545.676 521.301 540.492 524.043 c 535.293
 526.805 529.852 528.188 524.164 528.188 c h
524.164 528.188 m f
Q q
171.324 551.395 386.57 18.938 re W n
0 g
171.375 551.648 m 171.375 570.082 l 176.324 570.082 l 177.145 570.082 177.914
 569.98 178.633 569.773 c 179.355 569.574 180.016 569.285 180.613 568.902
 c 181.129 568.582 181.602 568.184 182.031 567.707 c 182.461 567.23 182.836
 566.711 183.156 566.145 c 183.496 565.512 183.758 564.816 183.941 564.055
 c 184.129 563.297 184.219 562.492 184.219 561.641 c 184.219 560.121 l 184.219
 559.234 184.121 558.395 183.926 557.613 c 183.723 556.828 183.441 556.109
 183.078 555.461 c 182.77 554.93 182.402 554.438 181.984 553.988 c 181.566
 553.535 181.094 553.152 180.566 552.844 c 179.957 552.461 179.281 552.168
 178.539 551.961 c 177.797 551.754 177 551.648 176.148 551.648 c h
174.957 567.219 m 174.957 554.539 l 176.148 554.539 l 176.578 554.539 176.973
 554.586 177.34 554.684 c 177.711 554.781 178.047 554.914 178.348 555.094
 c 178.742 555.332 179.094 555.637 179.395 556.004 c 179.691 556.379 179.934
 556.801 180.121 557.27 c 180.273 557.668 180.387 558.105 180.469 558.582
 c 180.551 559.059 180.59 559.562 180.59 560.094 c 180.59 561.641 l 180.59
 562.203 180.551 562.73 180.469 563.215 c 180.387 563.699 180.273 564.141
 180.121 564.539 c 179.934 564.992 179.711 565.391 179.457 565.73 c 179.199
 566.074 178.91 566.355 178.59 566.574 c 178.277 566.785 177.93 566.949 
177.555 567.059 c 177.172 567.164 176.762 567.219 176.324 567.219 c h
198.445 551.648 m 187.789 551.648 l 187.789 554.527 l 191.297 554.527 l
 191.297 567.219 l 187.789 567.219 l 187.789 570.082 l 198.445 570.082 l
 198.445 567.219 l 194.855 567.219 l 194.855 554.527 l 198.445 554.527 l
 h
212.129 565.27 m 212.129 565.598 212.062 565.898 211.926 566.176 c 211.793
 566.449 211.598 566.684 211.348 566.875 c 211.09 567.07 210.777 567.223
 210.414 567.332 c 210.047 567.445 209.625 567.5 209.152 567.5 c 208.621
 567.5 208.133 567.441 207.691 567.324 c 207.25 567.203 206.871 567.02 206.562
 566.762 c 206.238 566.512 205.992 566.184 205.812 565.789 c 205.633 565.395
 205.539 564.918 205.523 564.355 c 202.031 564.355 l 202.031 565.312 202.211
 566.141 202.578 566.852 c 202.945 567.562 203.445 568.18 204.078 568.703
 c 204.746 569.234 205.527 569.637 206.426 569.91 c 207.324 570.184 208.234
 570.32 209.152 570.32 c 210.09 570.32 210.957 570.207 211.75 569.988 c 
212.543 569.762 213.227 569.43 213.797 568.992 c 214.371 568.562 214.82 
568.035 215.145 567.406 c 215.473 566.777 215.633 566.055 215.633 565.242
 c 215.633 564.309 215.418 563.48 214.992 562.766 c 214.559 562.047 213.98
 561.418 213.254 560.879 c 212.773 560.551 212.246 560.258 211.672 560.008
 c 211.098 559.75 210.496 559.535 209.863 559.359 c 209.273 559.199 208.742
 559.027 208.277 558.84 c 207.809 558.652 207.406 558.445 207.078 558.219
 c 206.75 558 206.5 557.75 206.328 557.473 c 206.156 557.195 206.066 556.883
 206.066 556.539 c 206.066 556.207 206.133 555.902 206.262 555.621 c 206.391
 555.336 206.582 555.09 206.836 554.879 c 207.09 554.676 207.402 554.516
 207.77 554.402 c 208.137 554.289 208.555 554.23 209.027 554.23 c 209.543
 554.23 209.992 554.301 210.375 554.445 c 210.762 554.582 211.082 554.773
 211.348 555.02 c 211.598 555.273 211.789 555.57 211.922 555.918 c 212.055
 556.262 212.125 556.641 212.141 557.059 c 215.609 557.059 l 215.609 556.23
 215.449 555.469 215.129 554.777 c 214.809 554.086 214.363 553.488 213.789
 552.98 c 213.215 552.484 212.527 552.094 211.73 551.816 c 210.93 551.535
 210.051 551.395 209.09 551.395 c 208.164 551.395 207.305 551.516 206.508
 551.758 c 205.719 552 205.031 552.344 204.445 552.789 c 203.863 553.234
 203.41 553.777 203.078 554.414 c 202.75 555.047 202.586 555.75 202.586 
556.523 c 202.586 557.199 202.707 557.824 202.957 558.398 c 203.207 558.973
 203.574 559.496 204.066 559.965 c 204.555 560.438 205.184 560.875 205.961
 561.273 c 206.73 561.668 207.629 562.008 208.648 562.281 c 209.309 562.461
 209.855 562.652 210.297 562.859 c 210.742 563.066 211.102 563.293 211.383
 563.539 c 211.652 563.789 211.844 564.059 211.957 564.348 c 212.07 564.633
 212.129 564.941 212.129 565.27 c h
225.977 554.547 m 231.66 554.547 l 231.66 551.648 l 216.801 551.648 l 216.801
 554.547 l 222.406 554.547 l 222.406 570.082 l 225.977 570.082 l h
237.227 563.195 m 239.922 563.195 l 243.391 570.082 l 247.203 570.082 l
 247.203 569.914 l 243.234 562.309 l 243.746 562.082 244.203 561.812 244.609
 561.5 c 245.023 561.188 245.375 560.816 245.668 560.395 c 245.953 559.984
 246.176 559.516 246.332 558.984 c 246.492 558.461 246.57 557.867 246.57
 557.207 c 246.57 556.297 246.41 555.492 246.094 554.801 c 245.773 554.109
 245.324 553.535 244.746 553.07 c 244.152 552.605 243.445 552.25 242.621
 552.012 c 241.793 551.77 240.867 551.648 239.844 551.648 c 233.672 551.648
 l 233.672 570.082 l 237.227 570.082 l h
239.859 560.309 m 237.227 560.309 l 237.227 554.539 l 239.844 554.539 l
 240.336 554.539 240.773 554.598 241.152 554.715 c 241.531 554.832 241.852
 555 242.109 555.223 c 242.41 555.469 242.629 555.777 242.773 556.148 c 
242.922 556.527 242.996 556.957 242.996 557.445 c 242.996 557.855 242.941
 558.223 242.828 558.551 c 242.711 558.879 242.547 559.16 242.328 559.395
 c 242.066 559.691 241.727 559.918 241.309 560.074 c 240.891 560.23 240.406
 560.309 239.859 560.309 c h
260.668 551.648 m 250.008 551.648 l 250.008 554.527 l 253.516 554.527 l
 253.516 567.219 l 250.008 567.219 l 250.008 570.082 l 260.668 570.082 l
 260.668 567.219 l 257.074 567.219 l 257.074 554.527 l 260.668 554.527 l
 h
264.754 551.648 m 264.754 570.082 l 271.477 570.082 l 272.488 570.082 273.398
 569.965 274.207 569.738 c 275.02 569.512 275.707 569.168 276.273 568.711
 c 276.84 568.254 277.273 567.691 277.578 567.016 c 277.879 566.344 278.031
 565.562 278.031 564.68 c 278.031 564.211 277.969 563.762 277.848 563.332
 c 277.727 562.895 277.539 562.492 277.285 562.117 c 277.043 561.773 276.742
 561.469 276.383 561.211 c 276.023 560.945 275.539 560.73 274.93 560.562
 c 274.93 560.551 l 275.242 560.43 275.527 560.285 275.785 560.121 c 276.043
 559.953 276.273 559.766 276.473 559.562 c 276.848 559.191 277.129 558.758
 277.312 558.266 c 277.504 557.77 277.605 557.246 277.613 556.688 c 277.613
 555.828 277.457 555.082 277.137 554.449 c 276.824 553.816 276.375 553.293
 275.789 552.879 c 275.211 552.465 274.508 552.156 273.684 551.957 c 272.863
 551.75 271.949 551.648 270.941 551.648 c h
268.324 567.207 m 268.324 561.957 l 271.637 561.957 l 272.137 561.965 272.57
 562.031 272.934 562.16 c 273.297 562.281 273.59 562.465 273.816 562.703
 c 274.043 562.93 274.211 563.211 274.316 563.539 c 274.422 563.867 274.473
 564.238 274.473 564.652 c 274.473 565.047 274.402 565.402 274.266 565.727
 c 274.129 566.047 273.922 566.32 273.652 566.551 c 273.41 566.75 273.102
 566.91 272.738 567.031 c 272.367 567.148 271.949 567.207 271.488 567.207
 c h
270.969 559.387 m 268.324 559.387 l 268.324 554.547 l 270.957 554.547 l
 271.531 554.559 272.031 554.621 272.457 554.738 c 272.883 554.855 273.223
 555.047 273.477 555.309 c 273.672 555.496 273.816 555.727 273.914 556.004
 c 274.012 556.285 274.059 556.609 274.059 556.98 c 274.059 557.336 274 
557.652 273.887 557.93 c 273.773 558.207 273.609 558.445 273.398 558.637
 c 273.148 558.883 272.812 559.066 272.398 559.188 c 271.984 559.312 271.508
 559.379 270.969 559.387 c h
292.625 563.863 m 292.613 551.648 l 289.082 551.648 l 289.066 563.863 l
 289.062 564.465 288.996 564.992 288.875 565.445 c 288.758 565.902 288.582
 566.281 288.348 566.586 c 288.125 566.883 287.848 567.105 287.52 567.25
 c 287.188 567.398 286.805 567.473 286.371 567.473 c 285.973 567.473 285.625
 567.402 285.32 567.266 c 285.02 567.129 284.762 566.918 284.547 566.637
 c 284.32 566.336 284.152 565.949 284.039 565.488 c 283.926 565.02 283.863
 564.48 283.852 563.863 c 283.84 551.648 l 280.285 551.648 l 280.27 563.863
 l 280.27 564.895 280.418 565.812 280.711 566.617 c 281 567.422 281.41 568.102
 281.945 568.648 c 282.473 569.199 283.109 569.617 283.855 569.906 c 284.605
 570.191 285.441 570.336 286.371 570.336 c 287.359 570.336 288.238 570.191
 289.012 569.906 c 289.781 569.617 290.438 569.195 290.98 568.641 c 291.512
 568.09 291.918 567.414 292.199 566.613 c 292.484 565.809 292.625 564.895
 292.625 563.863 c h
303.75 554.547 m 309.434 554.547 l 309.434 551.648 l 294.574 551.648 l 
294.574 554.547 l 300.18 554.547 l 300.18 570.082 l 303.75 570.082 l h
315.219 562.004 m 322.781 562.004 l 322.781 559.191 l 315.219 559.191 l
 315.219 554.547 l 324.027 554.547 l 324.027 551.648 l 311.648 551.648 l
 311.648 570.082 l 324.062 570.082 l 324.062 567.207 l 315.219 567.207 l
 h
326.926 551.648 m 326.926 570.082 l 331.871 570.082 l 332.691 570.082 333.461
 569.98 334.184 569.773 c 334.902 569.574 335.562 569.285 336.164 568.902
 c 336.68 568.582 337.152 568.184 337.578 567.707 c 338.012 567.23 338.387
 566.711 338.711 566.145 c 339.047 565.512 339.305 564.816 339.492 564.055
 c 339.68 563.297 339.773 562.492 339.773 561.641 c 339.773 560.121 l 339.773
 559.234 339.672 558.395 339.473 557.613 c 339.273 556.828 338.996 556.109
 338.633 555.461 c 338.32 554.93 337.957 554.438 337.539 553.988 c 337.121
 553.535 336.645 553.152 336.113 552.844 c 335.504 552.461 334.828 552.168
 334.086 551.961 c 333.344 551.754 332.551 551.648 331.695 551.648 c h
330.504 567.219 m 330.504 554.539 l 331.695 554.539 l 332.125 554.539 332.523
 554.586 332.895 554.684 c 333.258 554.781 333.594 554.914 333.898 555.094
 c 334.297 555.332 334.645 555.637 334.941 556.004 c 335.242 556.379 335.484
 556.801 335.672 557.27 c 335.824 557.668 335.941 558.105 336.02 558.582
 c 336.098 559.059 336.137 559.562 336.137 560.094 c 336.137 561.641 l 336.137
 562.203 336.098 562.73 336.02 563.215 c 335.941 563.699 335.824 564.141
 335.672 564.539 c 335.484 564.992 335.262 565.391 335.004 565.73 c 334.746
 566.074 334.457 566.355 334.137 566.574 c 333.824 566.785 333.48 566.949
 333.102 567.059 c 332.719 567.164 332.309 567.219 331.871 567.219 c h
358.031 551.648 m 358.031 570.082 l 362.984 570.082 l 363.801 570.082 364.57
 569.98 365.293 569.773 c 366.012 569.574 366.672 569.285 367.273 568.902
 c 367.785 568.582 368.262 568.184 368.691 567.707 c 369.121 567.23 369.496
 566.711 369.816 566.145 c 370.156 565.512 370.418 564.816 370.602 564.055
 c 370.785 563.297 370.879 562.492 370.879 561.641 c 370.879 560.121 l 370.879
 559.234 370.781 558.395 370.586 557.613 c 370.383 556.828 370.102 556.109
 369.738 555.461 c 369.43 554.93 369.062 554.438 368.645 553.988 c 368.227
 553.535 367.754 553.152 367.219 552.844 c 366.613 552.461 365.941 552.168
 365.199 551.961 c 364.453 551.754 363.656 551.648 362.801 551.648 c h
361.617 567.219 m 361.617 554.539 l 362.801 554.539 l 363.234 554.539 363.633
 554.586 364 554.684 c 364.367 554.781 364.703 554.914 365.008 555.094 c
 365.402 555.332 365.754 555.637 366.055 556.004 c 366.352 556.379 366.594
 556.801 366.777 557.27 c 366.93 557.668 367.047 558.105 367.125 558.582
 c 367.207 559.059 367.246 559.562 367.246 560.094 c 367.246 561.641 l 367.246
 562.203 367.207 562.73 367.125 563.215 c 367.047 563.699 366.93 564.141
 366.777 564.539 c 366.594 564.992 366.371 565.391 366.117 565.73 c 365.855
 566.074 365.566 566.355 365.25 566.574 c 364.934 566.785 364.586 566.949
 364.207 567.059 c 363.832 567.164 363.422 567.219 362.984 567.219 c h
377.195 566.234 m 382.727 566.234 l 383.801 570.082 l 387.547 570.082 l
 381.629 551.648 l 378.398 551.648 l 372.359 570.082 l 376.105 570.082 l
 h
381.891 563.207 m 378.07 563.207 l 380.004 556.426 l h
397.078 554.547 m 402.762 554.547 l 402.762 551.648 l 387.902 551.648 l
 387.902 554.547 l 393.512 554.547 l 393.512 570.082 l 397.078 570.082 l
 h
408.309 566.234 m 413.836 566.234 l 414.914 570.082 l 418.66 570.082 l 
412.734 551.648 l 409.504 551.648 l 403.469 570.082 l 407.219 570.082 l 
h
413 563.207 m 409.18 563.207 l 411.117 556.426 l h
439.414 566.234 m 444.945 566.234 l 446.02 570.082 l 449.77 570.082 l 443.848
 551.648 l 440.617 551.648 l 434.578 570.082 l 438.324 570.082 l h
444.113 563.207 m 440.285 563.207 l 442.227 556.426 l h
460.043 570.082 m 463.59 570.082 l 463.59 551.648 l 460.02 551.648 l 460.008
 563.484 l 454.918 551.648 l 451.34 551.648 l 451.34 570.082 l 454.918 570.082
 l 454.918 558.199 l h
470.527 566.234 m 476.055 566.234 l 477.133 570.082 l 480.879 570.082 l
 474.953 551.648 l 471.727 551.648 l 465.691 570.082 l 469.438 570.082 l
 h
475.219 563.207 m 471.398 563.207 l 473.332 556.426 l h
494.988 567.207 m 486.355 567.207 l 486.355 551.648 l 482.789 551.648 l
 482.789 570.082 l 494.988 570.082 l h
508.027 551.648 m 504.395 560.141 l 500.762 551.648 l 496.863 551.648 l
 502.574 563.547 l 502.582 570.082 l 506.129 570.082 l 506.141 563.703 l
 511.938 551.648 l h
523.227 565.27 m 523.227 565.598 523.16 565.898 523.027 566.176 c 522.891
 566.449 522.695 566.684 522.441 566.875 c 522.188 567.07 521.879 567.223
 521.512 567.332 c 521.145 567.445 520.727 567.5 520.254 567.5 c 519.719
 567.5 519.234 567.441 518.789 567.324 c 518.348 567.203 517.973 567.02 
517.66 566.762 c 517.34 566.512 517.09 566.184 516.914 565.789 c 516.734
 565.395 516.637 564.918 516.617 564.355 c 513.129 564.355 l 513.129 565.312
 513.312 566.141 513.68 566.852 c 514.043 567.562 514.543 568.18 515.176
 568.703 c 515.844 569.234 516.625 569.637 517.523 569.91 c 518.426 570.184
 519.332 570.32 520.254 570.32 c 521.188 570.32 522.055 570.207 522.852 
569.988 c 523.641 569.762 524.324 569.43 524.898 568.992 c 525.473 568.562
 525.922 568.035 526.246 567.406 c 526.57 566.777 526.734 566.055 526.734
 565.242 c 526.734 564.309 526.52 563.48 526.09 562.766 c 525.656 562.047
 525.078 561.418 524.352 560.879 c 523.871 560.551 523.348 560.258 522.773
 560.008 c 522.199 559.75 521.594 559.535 520.961 559.359 c 520.371 559.199
 519.84 559.027 519.371 558.84 c 518.906 558.652 518.508 558.445 518.18 
558.219 c 517.848 558 517.594 557.75 517.422 557.473 c 517.25 557.195 517.164
 556.883 517.164 556.539 c 517.164 556.207 517.227 555.902 517.359 555.621
 c 517.492 555.336 517.684 555.09 517.934 554.879 c 518.191 554.676 518.5
 554.516 518.867 554.402 c 519.234 554.289 519.656 554.23 520.129 554.23
 c 520.645 554.23 521.094 554.301 521.477 554.445 c 521.859 554.582 522.18
 554.773 522.441 555.02 c 522.695 555.273 522.887 555.57 523.016 555.918
 c 523.148 556.262 523.223 556.641 523.238 557.059 c 526.707 557.059 l 526.707
 556.23 526.547 555.469 526.227 554.777 c 525.906 554.086 525.461 553.488
 524.887 552.98 c 524.312 552.484 523.629 552.094 522.828 551.816 c 522.031
 551.535 521.152 551.395 520.191 551.395 c 519.262 551.395 518.398 551.516
 517.609 551.758 c 516.812 552 516.125 552.344 515.543 552.789 c 514.961
 553.234 514.504 553.777 514.176 554.414 c 513.848 555.047 513.684 555.75
 513.684 556.523 c 513.684 557.199 513.809 557.824 514.059 558.398 c 514.305
 558.973 514.676 559.496 515.168 559.965 c 515.652 560.438 516.285 560.875
 517.059 561.273 c 517.828 561.668 518.727 562.008 519.746 562.281 c 520.406
 562.461 520.957 562.652 521.398 562.859 c 521.84 563.066 522.203 563.293
 522.48 563.539 c 522.75 563.789 522.941 564.059 523.059 564.348 c 523.172
 564.633 523.227 564.941 523.227 565.27 c h
540.652 551.648 m 530 551.648 l 530 554.527 l 533.504 554.527 l 533.504
 567.219 l 530 567.219 l 530 570.082 l 540.652 570.082 l 540.652 567.219
 l 537.062 567.219 l 537.062 554.527 l 540.652 554.527 l h
554.336 565.27 m 554.336 565.598 554.27 565.898 554.133 566.176 c 554 566.449
 553.805 566.684 553.555 566.875 c 553.301 567.07 552.988 567.223 552.621
 567.332 c 552.254 567.445 551.836 567.5 551.363 567.5 c 550.832 567.5 550.344
 567.441 549.902 567.324 c 549.457 567.203 549.078 567.02 548.766 566.762
 c 548.445 566.512 548.195 566.184 548.02 565.789 c 547.844 565.395 547.746
 564.918 547.73 564.355 c 544.234 564.355 l 544.234 565.312 544.418 566.141
 544.785 566.852 c 545.152 567.562 545.652 568.18 546.289 568.703 c 546.953
 569.234 547.734 569.637 548.633 569.91 c 549.531 570.184 550.441 570.32
 551.363 570.32 c 552.301 570.32 553.164 570.207 553.957 569.988 c 554.75
 569.762 555.434 569.43 556.012 568.992 c 556.582 568.562 557.035 568.035
 557.359 567.406 c 557.684 566.777 557.844 566.055 557.844 565.242 c 557.844
 564.309 557.629 563.48 557.199 562.766 c 556.766 562.047 556.188 561.418
 555.465 560.879 c 554.98 560.551 554.453 560.258 553.879 560.008 c 553.305
 559.75 552.703 559.535 552.07 559.359 c 551.48 559.199 550.949 559.027 
550.484 558.84 c 550.012 558.652 549.613 558.445 549.285 558.219 c 548.957
 558 548.707 557.75 548.535 557.473 c 548.359 557.195 548.273 556.883 548.273
 556.539 c 548.273 556.207 548.34 555.902 548.473 555.621 c 548.602 555.336
 548.793 555.09 549.047 554.879 c 549.301 554.676 549.609 554.516 549.977
 554.402 c 550.34 554.289 550.762 554.23 551.234 554.23 c 551.75 554.23 
552.199 554.301 552.582 554.445 c 552.969 554.582 553.289 554.773 553.555
 555.02 c 553.805 555.273 553.996 555.57 554.129 555.918 c 554.258 556.262
 554.332 556.641 554.352 557.059 c 557.82 557.059 l 557.82 556.23 557.66
 555.469 557.336 554.777 c 557.016 554.086 556.57 553.488 555.996 552.98
 c 555.422 552.484 554.734 552.094 553.938 551.816 c 553.141 551.535 552.262
 551.395 551.297 551.395 c 550.371 551.395 549.512 551.516 548.715 551.758
 c 547.926 552 547.234 552.344 546.652 552.789 c 546.07 553.234 545.617 
553.777 545.289 554.414 c 544.957 555.047 544.789 555.75 544.789 556.523
 c 544.789 557.199 544.914 557.824 545.164 558.398 c 545.414 558.973 545.781
 559.496 546.273 559.965 c 546.766 560.438 547.395 560.875 548.164 561.273
 c 548.938 561.668 549.832 562.008 550.855 562.281 c 551.512 562.461 552.062
 562.652 552.504 562.859 c 552.953 563.066 553.312 563.293 553.59 563.539
 c 553.859 563.789 554.051 564.059 554.164 564.348 c 554.277 564.633 554.336
 564.941 554.336 565.27 c h
554.336 565.27 m f
Q q
0 g
817.684 496.426 m 821.316 496.426 824.273 493.469 824.273 489.836 c 824.273
 486.203 821.316 483.246 817.684 483.246 c 814.047 483.246 811.094 486.203
 811.094 489.836 c 811.094 493.469 814.051 496.426 817.684 496.426 c h
817.684 485.441 m 820.105 485.441 822.078 487.414 822.078 489.836 c 822.078
 492.262 820.105 494.23 817.684 494.23 c 815.262 494.23 813.285 492.262 
813.285 489.836 c 813.289 487.414 815.262 485.441 817.684 485.441 c h
817.684 485.441 m f
Q q
613.176 403.156 234.996 193.898 re W n
0 g
841.898 552.676 m 838.379 545.984 l 838.379 414.77 l 838.379 408.305 833.121
 403.051 826.656 403.051 c 624.898 403.051 l 618.438 403.051 613.176 408.309
 613.176 414.77 c 613.176 564.898 l 613.176 571.363 618.438 576.617 624.898
 576.617 c 760.738 576.617 l 761.184 580.957 763.031 587.387 768.027 589.395
 c 803.719 597.164 l 847.805 573.992 l 847.988 573.457 l 849.027 570.488
 845.508 559.551 841.898 552.676 c h
624.16 414.77 m 624.16 414.367 624.492 414.035 624.898 414.035 c 826.656
 414.035 l 827.062 414.035 827.395 414.363 827.395 414.77 c 827.395 525.078
 l 815.914 503.23 l 814.652 500.82 812.172 499.324 809.441 499.324 c 808.27
 499.324 807.098 499.617 806.047 500.168 c 802.992 501.77 801.547 505.254
 802.379 508.457 c 802.191 508.523 l 812.883 528.879 l 813.043 529.172 813.074
 529.508 812.973 529.824 c 812.875 530.145 812.656 530.406 812.371 530.555
 c 811.773 530.871 811 530.625 810.688 530.035 c 799.961 509.617 l 798.688
 507.215 796.207 505.719 793.488 505.719 c 792.316 505.719 791.141 506.012
 790.102 506.555 c 788.379 507.457 787.109 508.98 786.527 510.848 c 785.945
 512.715 786.133 514.695 786.945 516.184 c 797.699 536.855 l 798.02 537.465
 797.781 538.219 797.18 538.543 c 796.59 538.852 795.816 538.605 795.504
 538.02 c 784.449 516.988 l 783.188 514.578 780.703 513.086 777.977 513.086
 c 776.805 513.086 775.633 513.371 774.59 513.922 c 772.863 514.824 771.594
 516.352 771.012 518.219 c 770.484 519.918 770.59 521.711 771.395 523.461
 c 783.473 546.531 l 783.789 547.141 783.551 547.895 782.945 548.219 c 782.344
 548.535 781.582 548.281 781.266 547.695 c 755.281 498.25 l 754.219 496.227
 752.289 494.855 750.082 494.473 c 780.875 472.762 l 781.406 473.023 781.996
 473.184 782.625 473.184 c 784.406 473.184 785.898 472.012 786.418 470.402
 c 806.215 466.977 l 806.215 492.832 l 808.41 492.832 l 808.41 422.461 l
 635.145 422.461 l 635.145 557.215 l 753.852 557.215 l 753.852 555.016 l
 637.344 555.016 l 637.344 511.801 l 660.949 502.527 l 661.559 502.906 662.27
 503.129 663.039 503.129 c 665.254 503.129 667.043 501.34 667.043 499.125
 c 667.043 499.117 667.039 499.109 667.039 499.098 c 688.027 484.566 l 688.504
 484.77 689.027 484.879 689.574 484.879 c 690.629 484.879 691.582 484.465
 692.293 483.797 c 718.938 500.152 l 719.184 502.129 720.852 503.664 722.895
 503.664 c 724.809 503.664 726.41 502.312 726.801 500.512 c 742.703 497.66
 l 742.715 497.672 742.723 497.684 742.73 497.695 c 741.348 499.836 741.09
 502.633 742.355 505.043 c 774.203 565.637 l 771.383 565.637 l 757.938 540.043
 l 759.918 565.637 l 624.898 565.637 l 624.492 565.637 624.16 565.309 624.16
 564.902 c h
725.914 497.062 m 725.18 496.207 724.105 495.656 722.895 495.656 c 721.891
 495.656 720.984 496.039 720.281 496.645 c 693.508 480.211 l 693.188 478.316
 691.555 476.875 689.57 476.875 c 687.359 476.875 685.57 478.668 685.57 
480.879 c 685.57 481.168 685.602 481.449 685.664 481.723 c 665.324 495.844
 l 664.676 495.391 663.891 495.125 663.039 495.125 c 660.828 495.125 659.035
 496.914 659.035 499.125 c 659.035 499.199 659.055 499.27 659.055 499.344
 c 637.34 507.828 l 637.34 424.656 l 806.215 424.656 l 806.215 463.227 l
 785.793 466.754 l 785.062 465.801 783.922 465.176 782.625 465.176 c 780.414
 465.176 778.621 466.965 778.621 469.176 c 778.621 469.328 778.652 469.469
 778.668 469.613 c 747.504 491.535 l 746.984 491.285 746.41 491.141 745.797
 491.141 c 744.02 491.141 742.535 492.301 742.012 493.906 c h
725.914 497.062 m f
Q Q
showpage
%%Trailer
end
%%EOF
